March Madness Basketball Turniment
…
.panel1-logistic-auto[

```r
*ids
```
]
 
.panel2-logistic-auto[

```
# A tibble: 4,032 x 5
   team             other_team  game                             teamid otherid
   <chr>            <chr>       <chr>                             <dbl>   <dbl>
 1 abilenechristian alabama     abilenechristian vs. alabama       1101    1104
 2 abilenechristian arkansas    abilenechristian vs. arkansas      1101    1116
 3 abilenechristian baylor      abilenechristian vs. baylor        1101    1124
 4 abilenechristian byu         abilenechristian vs. byu           1101    1140
 5 abilenechristian clemson     abilenechristian vs. clemson       1101    1155
 6 abilenechristian clevelandst abilenechristian vs. clevelandst   1101    1156
 7 abilenechristian colgate     abilenechristian vs. colgate       1101    1159
 8 abilenechristian colorado    abilenechristian vs. colorado      1101    1160
 9 abilenechristian uconn       abilenechristian vs. uconn         1101    1163
10 abilenechristian creighton   abilenechristian vs. creighton     1101    1166
# … with 4,022 more rows
```
…
.panel1-logistic-auto[

```r
ids %>%
* mutate(predicted_probs = map2_dbl(.x = ids$teamid,
*                                   .y = ids$otherid,
*                                   .f = logistic_predictor))
```
]
 
.panel2-logistic-auto[

```
# A tibble: 4,032 x 6
   team         other_team  game                  teamid otherid predicted_probs
   <chr>        <chr>       <chr>                  <dbl>   <dbl>           <dbl>
 1 abilenechri… alabama     abilenechristian vs.…   1101    1104           0.404
 2 abilenechri… arkansas    abilenechristian vs.…   1101    1116           0.308
 3 abilenechri… baylor      abilenechristian vs.…   1101    1124           0.262
 4 abilenechri… byu         abilenechristian vs.…   1101    1140           0.422
 5 abilenechri… clemson     abilenechristian vs.…   1101    1155           0.763
 6 abilenechri… clevelandst abilenechristian vs.…   1101    1156           0.694
 7 abilenechri… colgate     abilenechristian vs.…   1101    1159           0.165
 8 abilenechri… colorado    abilenechristian vs.…   1101    1160           0.507
 9 abilenechri… uconn       abilenechristian vs.…   1101    1163           0.474
10 abilenechri… creighton   abilenechristian vs.…   1101    1166           0.375
# … with 4,022 more rows
```
…
.panel2-logistic-auto[

```
# A tibble: 4,032 x 10
   team   other_team  game    predicted_winner predicted_winne… predicted_loser…
   <chr>  <chr>       <chr>   <chr>                       <dbl>            <dbl>
 1 abile… alabama     abilen… alabama                     0.596            0.404
 2 abile… arkansas    abilen… arkansas                    0.692            0.308
 3 abile… baylor      abilen… baylor                      0.738            0.262
 4 abile… byu         abilen… byu                         0.578            0.422
 5 abile… clemson     abilen… abilenechristian            0.763            0.237
 6 abile… clevelandst abilen… abilenechristian            0.694            0.306
 7 abile… colgate     abilen… colgate                     0.835            0.165
 8 abile… colorado    abilen… abilenechristian            0.507            0.493
 9 abile… uconn       abilen… uconn                       0.526            0.474
10 abile… creighton   abilen… creighton                   0.625            0.375
# … with 4,022 more rows, and 4 more variables: prediction_points <dbl>,
#   teamid <dbl>, otherid <dbl>, predicted_probs <dbl>
```
…
.panel2-logistic-auto[

```
# A tibble: 4,032 x 10
   team   other_team  game    predicted_winner predicted_winne… predicted_loser…
   <chr>  <chr>       <chr>   <chr>                       <dbl>            <dbl>
 1 abile… alabama     abilen… alabama                     0.596            0.404
 2 abile… arkansas    abilen… arkansas                    0.692            0.308
 3 abile… baylor      abilen… baylor                      0.738            0.262
 4 abile… byu         abilen… byu                         0.578            0.422
 5 abile… clemson     abilen… abilenechristian            0.763            0.237
 6 abile… clevelandst abilen… abilenechristian            0.694            0.306
 7 abile… colgate     abilen… colgate                     0.835            0.165
 8 abile… colorado    abilen… abilenechristian            0.507            0.493
 9 abile… uconn       abilen… uconn                       0.526            0.474
10 abile… creighton   abilen… creighton                   0.625            0.375
# … with 4,022 more rows, and 4 more variables: prediction_points <dbl>,
#   teamid <dbl>, otherid <dbl>, predicted_probs <dbl>
```
…
```
# A tibble: 4,032 x 10
   team   other_team  game    predicted_winner predicted_winne… predicted_loser…
   <chr>  <chr>       <chr>   <chr>                       <dbl>            <dbl>
 1 abile… alabama     abilen… alabama                     0.596            0.404
 2 abile… arkansas    abilen… arkansas                    0.692            0.308
 3 abile… baylor      abilen… baylor                      0.738            0.262
 4 abile… byu         abilen… byu                         0.578            0.422
 5 abile… clemson     abilen… abilenechristian            0.763            0.237
 6 abile… clevelandst abilen… abilenechristian            0.694            0.306
 7 abile… colgate     abilen… colgate                     0.835            0.165
 8 abile… colorado    abilen… abilenechristian            0.507            0.493
 9 abile… uconn       abilen… uconn                       0.526            0.474
10 abile… creighton   abilen… creighton                   0.625            0.375
# … with 4,022 more rows, and 4 more variables: prediction_points <dbl>,
#   teamid <dbl>, otherid <dbl>, predicted_probs <dbl>
```
…
